Credentials cache: API:1CDB1E27-3CE9-4445-9EB1-33B4671DF396
        Principal: algrele@42.FR

  Issued                Expires               Principal
Feb  5 11:41:25 2018  Feb 12 11:41:25 2018  krbtgt/42.FR@42.FR
Feb  5 12:19:33 2018  Feb 12 11:41:25 2018  host/vgs-fn1.42.fr@42.FR
